Introduction to data
…
N666DN

N755US

N779JB

N947UW

N959UW

# type your code for Question 8 here, and Knit
nycflights <- nycflights %>% mutate(avg_speed = distance / air_time * 60 )
nycflights %>% select(avg_speed, tailnum) %>% group_by(tailnum) %>% arrange(desc(avg_speed))

## Source: local data frame [32,735 x 2]
## Groups: tailnum [3,490]
## 
##    avg_speed tailnum
##        <dbl>   <chr>
## 1   703.3846  N666DN
## 2   557.4419  N779JB
## 3   554.2197  N571JB
## 4   547.8857  N568JB
## 5   547.8857  N5EHAA
## 6   547.8857  N656JB
## 7   544.7727  N789JB
## 8   538.6517  N516JB
## 9   535.6425  N648JB
## 10  535.6425  N510JB
## # ... with 32,725 more rows
…
